…
> iris %>% shard_split("iris", "csv", shard_by = Species)
# A tibble: 3 x 2
  path                                       data
  <chr>                            <list<tibble>>
1 iris/iris-Species=setosa.csv           [50 x 5]
2 iris/iris-Species=versicolor.csv       [50 x 5]
3 iris/iris-Species=virginica.csv        [50 x 5]

> iris %>% shard_split("iris", "csv", shard_by = c(Species, Petal.Width))
# A tibble: 27 x 2
   path                                                       data
   <chr>                                            <list<tibble>>
 1 iris/Species=setosa/iris-Petal.Width=0.1.csv            [5 x 5]
 2 iris/Species=setosa/iris-Petal.Width=0.2.csv           [29 x 5]
 3 iris/Species=setosa/iris-Petal.Width=0.3.csv            [7 x 5]
 4 iris/Species=setosa/iris-Petal.Width=0.4.csv            [7 x 5]
 5 iris/Species=setosa/iris-Petal.Width=0.5.csv            [1 x 5]
 6 iris/Species=setosa/iris-Petal.Width=0.6.csv            [1 x 5]
 7 iris/Species=versicolor/iris-Petal.Width=1.csv          [7 x 5]
 8 iris/Species=versicolor/iris-Petal.Width=1.1.csv        [3 x 5]
 9 iris/Species=versicolor/iris-Petal.Width=1.2.csv        [5 x 5]
10 iris/Species=versicolor/iris-Petal.Width=1.3.csv       [13 x 5]
# ... with 17 more rows
…
